CUT&RUN In Bioconductor (part5)
…
Here we will get gene sets from MSigDB using the
msigdbr package. We can use this package to pull out
specific gene sets, which can be seen at this link.
We can also run the msigdbr_collections function to see the
categories and subcategory codes that will be used for accessing the
gene sets.

library(msigdbr)
msigdbr_collections()

## # A tibble: 25 x 4
##    gs_collection gs_subcollection  gs_collection_name               num_genesets
##    <chr>         <chr>             <chr>                                   <int>
##  1 C1            ""                Positional                                302
##  2 C2            "CGP"             Chemical and Genetic Perturbati~         3494
##  3 C2            "CP"              Canonical Pathways                         19
##  4 C2            "CP:BIOCARTA"     BioCarta Pathways                         292
##  5 C2            "CP:KEGG_LEGACY"  KEGG Legacy Pathways                      186
##  6 C2            "CP:KEGG_MEDICUS" KEGG Medicus Pathways                     658
##  7 C2            "CP:PID"          PID Pathways                              196
##  8 C2            "CP:REACTOME"     Reactome Pathways                        1736
##  9 C2            "CP:WIKIPATHWAYS" WikiPathways                              830
## 10 C3            "MIR:MIRDB"       miRDB                                    2377
## # i 15 more rows
…
